Paul Roback - Creating informative maps
…
Choropleth Maps

When you have specific regions (e.g. countries, states, counties, census tracts,…) and a value associated with each region.

A choropleth map will color the entire region according to the value. For example, let’s consider state vaccination data from March 2021.

vaccines <- read_csv("https://proback.github.io/264_fall_2024/Data/vacc_Mar21.csv") 

vacc_mar13 <- vaccines |>
  filter(Date =="2021-03-13") |>
  select(State, Date, people_vaccinated_per100, share_doses_used, Governor)

vacc_mar13

# A tibble: 50 × 5
   State       Date       people_vaccinated_per100 share_doses_used Governor
   <chr>       <date>                        <dbl>            <dbl> <chr>   
 1 Alabama     2021-03-13                     17.2            0.671 R       
 2 Alaska      2021-03-13                     27.0            0.686 R       
 3 Arizona     2021-03-13                     21.5            0.821 R       
 4 Arkansas    2021-03-13                     19.2            0.705 R       
 5 California  2021-03-13                     20.3            0.726 D       
 6 Colorado    2021-03-13                     20.8            0.801 D       
 7 Connecticut 2021-03-13                     26.2            0.851 D       
 8 Delaware    2021-03-13                     20.2            0.753 D       
 9 Florida     2021-03-13                     20.1            0.766 R       
10 Georgia     2021-03-13                     15.2            0.674 R       
# ℹ 40 more rows
…
